<?xml version="1.0" encoding="utf-8"?>
<!-- Generator: Adobe Illustrator 22.0.1, SVG Export Plug-In . SVG Version: 6.00 Build 0)  -->
<svg version="1.1" id="Layer_1" xmlns="http://www.w3.org/2000/svg" xmlns:xlink="http://www.w3.org/1999/xlink" x="0px" y="0px"
	 width="96.9px" height="96.9px" viewBox="0 0 96.9 96.9" style="enable-background:new 0 0 96.9 96.9;" xml:space="preserve">
<style type="text/css">
	.st0{fill:#FFFFFF;}
	.st1{fill:#128F47;}
	.st2{fill:#D4D4D5;}
</style>
<g id="_x36_vZsR8_1_">
	<g>
		<path class="st0" d="M48.4,96.9c-15.9,0-31.9,0-47.8,0c-0.5,0-0.6-0.1-0.6-0.6C0,64.4,0,32.5,0,0.6C0,0.1,0.1,0,0.6,0
			c31.9,0,63.8,0,95.7,0c0.5,0,0.6,0.1,0.6,0.6c0,31.9,0,63.8,0,95.7c0,0.5-0.1,0.6-0.6,0.6C80.3,96.9,64.4,96.9,48.4,96.9z
			 M79.3,23c0-0.2-0.1-0.5-0.4-0.5c-0.5-0.2-0.9-0.6-1.2-0.9c-0.7-0.8-1.6-1.2-2.4-1.9c-0.8-0.7-1.7-1.3-2.5-2
			c-1-0.9-2.2-1.6-3.2-2.6c-1-0.9-2.1-1.8-3.2-2.6c-0.6-0.4-1.1-1-1.7-1.4c-0.6-0.4-1.2-0.8-1.7-1.3c-0.5-0.6-1.3-0.7-1.7-1.4
			c0,0-0.2,0-0.2,0c-0.1-0.5-0.5-0.3-0.8-0.3c-13.5,0-26.9,0-40.4,0c-1.8,0-2.8,1.1-2.8,2.8c0,25,0,50.1,0,75.1
			c0,1.9,0.8,2.7,2.7,2.7c19,0,37.9,0,56.9,0c1.9,0,2.8-0.8,2.8-2.8c0-20.7,0-41.4,0-62.1c0-0.2,0-0.3,0-0.5
			C79.7,23.1,79.5,23.1,79.3,23z"/>
		<path class="st1" d="M79.3,23c0.2,0,0.4,0.1,0.4,0.4c0,0.2,0,0.3,0,0.5c0,20.7,0,41.4,0,62.1c0,1.9-0.8,2.8-2.8,2.8
			c-19,0-37.9,0-56.9,0c-1.9,0-2.7-0.8-2.7-2.7c0-25,0-50.1,0-75.1c0-1.8,1.1-2.8,2.8-2.8c13.5,0,26.9,0,40.4,0
			c0.3,0,0.7-0.2,0.8,0.3c0,0.2,0,0.4,0,0.7c0,3.6,0,7.3,0,10.9c0,2,1,3,3,3c4.8,0,9.6,0,14.4,0C78.8,23.1,79.1,23,79.3,23z
			 M44.6,51.8c0,1.6,0,3.2,0,4.8c0,0.5,0.2,0.6,0.6,0.7c1,0.1,2,0.1,3,0c3.3-0.3,5.1-2,5.4-5.2c0.3-2.8-1-5-3.5-5.7
			c-1.7-0.5-3.5-0.3-5.2-0.1c-0.4,0-0.3,0.3-0.3,0.5C44.6,48.5,44.6,50.2,44.6,51.8z M36,51.8c0,1.7,0,3.3,0,5
			c0,0.6,0.3,0.5,0.7,0.5c0.3,0,0.8,0.2,0.7-0.5c0-1.1,0-2.1,0-3.2c0-0.5,0.1-0.7,0.6-0.6c1,0.1,2.1,0,3-0.5
			c1.3-0.7,1.9-1.9,1.7-3.5c-0.1-1.3-1-2.2-2.4-2.6c-1.3-0.3-2.6-0.2-3.9,0c-0.4,0-0.4,0.3-0.4,0.6C36,48.5,36,50.2,36,51.8z
			 M58.6,46.2c-0.8,0-1.7,0-2.5,0c-0.4,0-0.5,0.1-0.5,0.5c0,3.4,0,6.7,0,10.1c0,0.7,0.4,0.5,0.8,0.5c0.3,0,0.7,0.1,0.7-0.5
			c0-1.3,0-2.6,0-3.9c0-0.5,0.2-0.6,0.6-0.6c1,0,2.1,0,3.1,0c0.5,0,0.5-0.3,0.5-0.6c0-0.3,0.1-0.7-0.5-0.6c-1,0-2.1,0-3.2,0
			c-0.5,0-0.6-0.1-0.5-0.6c0-0.8,0-1.7,0-2.5c0-0.4,0.1-0.6,0.5-0.6c1.2,0,2.4,0,3.6,0c0.6,0,0.4-0.3,0.5-0.6c0-0.3,0-0.6-0.5-0.6
			C60.2,46.3,59.4,46.2,58.6,46.2z"/>
		<path class="st2" d="M79.3,23c-0.2,0-0.5,0.1-0.7,0.1c-4.8,0-9.6,0-14.4,0c-2,0-3-1-3-3c0-3.6,0-7.3,0-10.9c0-0.2,0-0.4,0-0.7
			c0.1,0,0.2-0.1,0.2,0c0.4,0.6,1.2,0.8,1.7,1.4c0.5,0.5,1.1,0.9,1.7,1.3c0.6,0.4,1.1,1,1.7,1.4c1.1,0.8,2.2,1.6,3.2,2.6
			c1,0.9,2.2,1.6,3.2,2.6c0.8,0.7,1.7,1.3,2.5,2c0.8,0.7,1.7,1.1,2.4,1.9c0.3,0.3,0.7,0.8,1.2,0.9C79.2,22.6,79.3,22.8,79.3,23z"/>
		<path class="st0" d="M44.6,51.8c0-1.7,0-3.3,0-5c0-0.2,0-0.5,0.3-0.5c1.7-0.2,3.5-0.4,5.2,0.1c2.5,0.7,3.8,2.9,3.5,5.7
			c-0.3,3.2-2.1,4.9-5.4,5.2c-1,0.1-2,0-3,0c-0.5,0-0.6-0.2-0.6-0.7C44.7,55,44.6,53.4,44.6,51.8z M46.1,51.8c0,1,0,2.1,0,3.1
			c0,1.4,0,1.4,1.4,1.4c3.1,0,4.7-1.6,4.8-4.6c0-2.1-1-3.6-2.8-4.1c-1-0.3-1.9-0.2-2.9-0.2c-0.4,0-0.5,0.2-0.5,0.6
			C46.1,49.2,46.1,50.5,46.1,51.8z"/>
		<path class="st0" d="M36,51.8c0-1.6,0-3.3,0-4.9c0-0.3,0-0.6,0.4-0.6c1.3-0.1,2.6-0.3,3.9,0c1.4,0.4,2.3,1.3,2.4,2.6
			c0.2,1.6-0.4,2.9-1.7,3.5c-0.9,0.5-2,0.6-3,0.5c-0.5-0.1-0.6,0.1-0.6,0.6c0,1.1,0,2.1,0,3.2c0,0.7-0.4,0.5-0.7,0.5
			c-0.4,0-0.7,0.1-0.7-0.5C36,55.1,36,53.4,36,51.8z M37.4,49.5c0,0.2,0,0.5,0,0.7c0,1.7,0.1,1.7,1.8,1.5c0.1,0,0.1,0,0.2,0
			c1.3-0.2,2-1.1,2-2.4c-0.1-1.2-0.8-1.9-2.2-2c-0.4,0-0.7,0-1.1,0c-0.6,0-0.7,0.2-0.7,0.8C37.4,48.5,37.4,49,37.4,49.5z"/>
		<path class="st0" d="M58.6,46.2c0.8,0,1.7,0,2.5,0c0.5,0,0.5,0.2,0.5,0.6c0,0.3,0.1,0.7-0.5,0.6c-1.2,0-2.4,0-3.6,0
			C57,47.4,57,47.6,57,48c0,0.8,0,1.7,0,2.5c0,0.4,0.1,0.6,0.5,0.6c1,0,2.1,0,3.2,0c0.6,0,0.5,0.3,0.5,0.6c0,0.3,0,0.6-0.5,0.6
			c-1,0-2.1,0-3.1,0c-0.5,0-0.7,0.1-0.6,0.6c0,1.3,0,2.6,0,3.9c0,0.6-0.3,0.5-0.7,0.5c-0.3,0-0.8,0.2-0.8-0.5c0-3.4,0-6.7,0-10.1
			c0-0.4,0.1-0.5,0.5-0.5C56.9,46.3,57.7,46.2,58.6,46.2z"/>
		<path class="st1" d="M46.1,51.8c0-1.3,0-2.6,0-3.9c0-0.4,0.1-0.5,0.5-0.6c1-0.1,2-0.1,2.9,0.2c1.8,0.5,2.8,2,2.8,4.1
			c0,3-1.7,4.6-4.8,4.6c-1.4,0-1.4,0-1.4-1.4C46.1,53.8,46.1,52.8,46.1,51.8z"/>
		<path class="st1" d="M37.4,49.5c0-0.5,0-1,0-1.5c0-0.5,0.1-0.8,0.7-0.8c0.4,0,0.7,0,1.1,0c1.3,0.1,2.1,0.8,2.2,2
			c0.1,1.3-0.6,2.2-2,2.4c-0.1,0-0.1,0-0.2,0c-1.7,0.2-1.8,0.1-1.8-1.5C37.4,50,37.4,49.8,37.4,49.5z"/>
	</g>
</g>
</svg>
